GAStech
…
By changing hours and car id in the codes, we could find useful patterns:

Between 6am and 10am in all workdays. Besides staying in homes and the company, employees usually appear in the cafeteria. It indicates that they often eat breakfast or buy the food on the way to the company.

All the cars during the period between 4pm and 6pm in all working days. Instead of stopping by the restaurants for dinner, employees usually drive back home directly.

GAStech workers rarely have activities during the nights from Monday to Friday.

Vast Challenge 3

In the Mini-challenge 3 , It’s give a collection of a collection of microblogs and emergency calls from the days surrounding the disappearance. In order to visualize the occurrence and duration of important events, the time can be divided into different groups every half an hour, and the number of words related to related events in each time period can be counted. The number of words will reflect the impact of the event. Using the interactive bar chart to visualize changes in important events over time.

## # A tibble: 4,063 x 8
##    type   date.yyyyMMddHHm~ author  message         latitude longitude location 
##  * <chr>              <dbl> <chr>   <chr>              <dbl>     <dbl> <chr>    
##  1 mbdata           2.01e13 "pok"   follow us @pok~       NA        NA ""       
##  2 mbdata           2.01e13 "maha_~ don't miss a m~       NA        NA ""       
##  3 mbdata           2.01e13 "vikto~ come join us i~       NA        NA ""       
##  4 mbdata           2.01e13 "krono~ pok rally to s~       NA        NA ""       
##  5 mbdata           2.01e13 "abila~ pok rally set ~       NA        NA ""       
##  6 mbdata           2.01e13 "ourco~ pok rally in t~       NA        NA ""       
##  7 mbdata           2.01e13 "reggi~ great day for ~       NA        NA ""       
##  8 mbdata           2.01e13 "mindo~ ugh, these pok~       NA        NA ""       
##  9 mbdata           2.01e13 "frien~ massive rally ~       NA        NA ""       
## 10 ccdata           2.01e13 ""      keep the peace~       NA        NA "Egeou S~
## # ... with 4,053 more rows, and 1 more variable: time <dttm>
…
